{
  "openapi": "3.0.3",
  "info": {
    "title": "Binar Car Management API",
    "description": "OpenAPI for Car Management API",
    "version": "1",
    "termsOfService": "https://www.instagram.com/lailla_asri/",
    "contact": {
      "name": "Nur Aini Lailla Asri",
      "email": "laillaasri@gmail.com",
      "url": "https://www.instagram.com/lailla_asri/"
    },
    "license": {
      "name": "APACHE 2.0",
      "url": "https://www.apache.org/licenses/LICENSE-2.0"
    }
  },
  "tags": [
    {
      "name": "Cars",
      "description": "API for cars in the system"
    },
    {
      "name": "Users",
      "description": "API for users in the system"
    }
  ],
  "servers": [
    {
      "description": "Car Management API Server",
      "url": "http://localhost:8000/{env}",
      "variables": {
        "env": {
          "description": "Server Environment",
          "default": "api/v1",
          "enum": [
            "api/v1",
            "dev"
          ]
        }
      }
    }
  ],
  "externalDocs": {
    "url": "https://swagger.io/docs/specification/about/",
    "description": "OpenAPI Guide"
  },
  "paths": {
    "/cars": {
      "get": {
        "security": [{
          "CarAuth": []
      }],
      "tags": ["Cars"],

        "summary": "Get All Cars",
        "description": "Get all car which is not deleted",
        "responses": {
          "200": {
            "description": "Success get all cars",
            "content": {
              "application/json": {
                "schema": {
                  "$ref": "#/components/schemas/CarSchemaReqBody"
                },
                "examples": {
                  "success": {
                    "description": "Example success get all car",
                    "value": [
                      {
                        "type": "benia",
                       "model":"mobil keluarga",
                       "rentperday":200000,
                       "image":"pg",
                        "createdBy": "jalan",
                       "updateBy": "jalan",
                       "available": true,
                        "availabelAt": "bagaimana"
                    }
                      
                    ]
                  }
                }
              }
            }
          }
        }
      },
      "post": {
        "security": [
          {
            "CarAuth": []
          }
        ],
        "tags": [
          "Cars"
        ],
        "summary": "Create New Car By",
        "description": "Create one car by admin or superadmin only",
        "requestBody": {
          "required": true,
          "content": {
            "application/json": {
              "schema": {
                "$ref": "#/components/schemas/CarSchemaReqBody"
              },
              "examples": {
                "cars": {
                  "value": {
                    "type": "xenia",
                    "model":"SUV",
                    "rentperday":200000,
                    "image":"pg",
                    "createdBy": "jalan",
                    "updateBy": "jalan",
                    "available": true,
                    "availabelAt": "ada"
                  }
                }
              }
            }
          }
        },
        "responses": {
          "200": {
            "description": "Succes create new car",
            "content": {
              "application/json": {
                "schema": {
                  "type": "object",
                  "properties": {
                    "id": {
                      "type": "integer"
                    }
                  }
                }
              }
            }
          }
        }
      }
    },
    "/cars/{id}": {
      "get": {
        "security": [
          {
            "CarAuth": []
          }
        ],
        "tags": [
          "Cars"
        ],
        "summary": "Get Spesific Car",
        "description": "Update car by admin or superadmin only",
        "parameters": [
          {
            "$ref": "#/components/parameters/id"
          }
        ],
        "responses": {}
      },
      "put": {
        "security": [
          {
            "CarAuth": []
          }
        ],
        "tags": [
          "Cars"
        ],
        "summary": "Update Existing Car",
        "description": "Update car by admin or superadmin only",
        "parameters": [
          {
            "$ref": "#/components/parameters/id"
          }
        ],
        "requestBody": {
          "required": true,
          "content": {
            "application/json": {
              "schema": {
                "$ref": "#/components/schemas/CarSchemaReqBody"
              },
              "examples": {
                "dummy_input": {
                  "description": "Example Create New Car",
                  "value": {
                    {
                      "type": "benia",
                     "model":"mobil keluarga",
                     "rentperday":200000,
                     "image":"pg",
                      "createdBy": "jalan",
                     "updateBy": "jalan",
                     "available": true,
                      "availabelAt": "bagaimana"
                  }
                  }
                }
              }
            }
          }
        },
        "responses": {}
      },
      "delete": {
        "security": [
          {
            "CarAuth": []
          }
        ],
        "tags": [
          "Cars"
        ],
        "summary": "Delete Existing Car",
        "description": "make isDeleted atribute true, but not deleting from database",
        "parameters": [
          {
            "$ref": "#/components/parameters/id"
          }
        ],
        "responses": {}
      }
    },
    "/register": {
      "post": {
        "tags": [
          "Users"
        ],
        "summary": "Create new user",
        "description": "Create new user as member",
        "requestBody": {
          "required": true,
          "content": {
            "application/json": {
              "schema": {
                "type": "object",
                "properties": {
                  "user_email": {
                    "type": "string"
                  },
                  "password": {
                    "type": "string"
                  }
                }
              }
            }
          }
        },
        "responses": {
          "200": {
            "description": "Success creating new user"
          }
        }
      }
    },
    "/login": {
      "post": {
        "tags": [
          "Users"
        ],
        "summary": "Login user",
        "description": "Login user",
        "requestBody": {
          "required": true,
          "content": {
            "application/json": {
              "schema": {
                "type": "object",
                "properties": {
                  "email": {
                    "type": "string"
                  },
                  "password": {
                    "type": "string"
                  }
                }
              },
              "examples": {
                "superadmin": {
                  "description": "login as superadmin",
                  "value": {
                    "email": "chandra123@gmail.com",
                    "password": "jangan12"
                  }
                }
              }
            }
          }
        },
        "responses": {
          "200": {
            "description": "Success login"
          }
        }
      }
    },
    "/users/{id}/update-admin": {
      "put": {
        "security": [
          {
            "CarAuth": []
          }
        ],
        "tags": [
          "Users"
        ],
        "summary": "Change user role to admin",
        "description": "Change user role to admin by superadmin only",
        "parameters": [
          {
            "name": "id",
            "in": "path",
            "required": true,
            "description": "User id for changing role to admin",
            "schema": {
              "type": "string",
              "minLength": 1,
              "maxLength": 100
            }
          }
        ],
        "requestBody": {
          "required": true,
          "content": {
            "application/json": {
              "schema": {
                "$ref": "#/components/schemas/CarSchemaReqBody"
              },
              "examples": {
                "dummy_input": {
                  "description": "Example Create New Car",
                  "value": {
                    "isAdmin": true
                  }
                }
              }
            }
          }
        },
        "responses": {
          "200": {
            "description": "Succes update role"
          }
        }
      }
    },
    "/dashboard": {
      "get": {
        "security": [
          {
            "CarAuth": []
          }
        ],
        "tags": [
          "Users"
        ],
        "summary": "Show data user who logged in",
        "description": "Show data user who logged in at the moment",
        "responses": {
          "200": {
            "description": "Succes show data user who logged in"
          }
        }
      }
    }
  },
  "components": {
    "securitySchemes": {
      "CarAuth": {
        "description": "Authentication for Car Management API",
        "type": "http",
        "scheme": "bearer",
        "bearerFormat": "JWT"
      }
    },
    "parameters": {
      "id": {
        "name": "id",
        "in": "path",
        "required": true,
        "description": "Car id for spesific car",
        "schema": {
          "type": "string",
          "minLength": 1,
          "maxLength": 100
        }
      }
    },
    "schemas": {
      "CarSchemaReqBody": {
        "type": "object",
        "properties": {
          "type": {
            "type": "string"
          },
          "model": {
            "type": "string"
          },
          "rentperday": {
            "type": "string"
          },
          "image": {
            "type": "string"
          },
          "createdBy": {
            "type": "string"
          },
          "updatedBy": {
            "type": "string"
          },
          "availableAt": {
            "type": "string"
          },
          "deletedBy": {
            "type": "string"
          }
        }
      }
    }
  }
}
